tidyverse
…
## # A tibble: 3 x 4
## # Groups:   orientation [2]
##   orientation `age > 20` my_mean n_observations
##   <chr>       <lgl>        <dbl>          <int>
## 1 hetero      FALSE         54.5              2
## 2 hetero      TRUE          60.0              5
## 3 homo        TRUE          64.0              7

homo %>% 
  group_by(orientation, age > 20) %>% 
  summarise(my_mean = mean(s.duration.ms), n_observations = n()) %>% 
  left_join(homo)

## # A tibble: 21 x 13
## # Groups:   orientation [2]
##    orientation `age > 20` my_mean n_observations speaker s.duration.ms
##    <chr>       <lgl>        <dbl>          <int> <chr>           <dbl>
##  1 hetero      FALSE         54.5              2 A                61.4
##  2 hetero      FALSE         54.5              2 B                63.9
##  3 hetero      FALSE         54.5              2 G                65.4
##  4 hetero      FALSE         54.5              2 H                62.5
##  5 hetero      FALSE         54.5              2 L                53.3
##  6 hetero      FALSE         54.5              2 M                45.1
##  7 hetero      FALSE         54.5              2 N                57.7
##  8 hetero      TRUE          60.0              5 A                61.4
##  9 hetero      TRUE          60.0              5 B                63.9
## 10 hetero      TRUE          60.0              5 G                65.4
## # … with 11 more rows, and 7 more variables: vowel.duration.ms <dbl>,
## #   average.f0.Hz <dbl>, f0.range.Hz <dbl>, perceived.as.homo <dbl>,
## #   perceived.as.hetero <dbl>, perceived.as.homo.percent <dbl>, age <dbl>
…
